lab-3
…
# Tuning results
# 5-fold cross-validation 
# A tibble: 5 × 4
  splits           id    .metrics          .notes          
  <list>           <chr> <list>            <list>          
1 <split [382/96]> Fold1 <tibble [50 × 6]> <tibble [0 × 3]>
2 <split [382/96]> Fold2 <tibble [50 × 6]> <tibble [0 × 3]>
3 <split [382/96]> Fold3 <tibble [50 × 6]> <tibble [0 × 3]>
4 <split [383/95]> Fold4 <tibble [50 × 6]> <tibble [0 × 3]>
5 <split [383/95]> Fold5 <tibble [50 × 6]> <tibble [0 × 3]>

collect_metrics(tree_res)

# A tibble: 50 × 8
   tree_depth min_n .metric  .estimator  mean     n std_err .config             
        <int> <int> <chr>    <chr>      <dbl> <int>   <dbl> <chr>               
 1          1     2 accuracy binary     0.673     5  0.0229 Preprocessor1_Model…
 2          1     2 roc_auc  binary     0.668     5  0.0181 Preprocessor1_Model…
 3          1    11 accuracy binary     0.673     5  0.0229 Preprocessor1_Model…
 4          1    11 roc_auc  binary     0.668     5  0.0181 Preprocessor1_Model…
 5          1    21 accuracy binary     0.673     5  0.0229 Preprocessor1_Model…
 6          1    21 roc_auc  binary     0.668     5  0.0181 Preprocessor1_Model…
 7          1    30 accuracy binary     0.673     5  0.0229 Preprocessor1_Model…
 8          1    30 roc_auc  binary     0.668     5  0.0181 Preprocessor1_Model…
 9          1    40 accuracy binary     0.673     5  0.0229 Preprocessor1_Model…
10          1    40 roc_auc  binary     0.668     5  0.0181 Preprocessor1_Model…
# ℹ 40 more rows
…
pred_test <- predict(tree_fit, dat_test2) |> bind_cols(dat_test2 |> select(pa))
pred_test |> accuracy(pa, .pred_class)

# A tibble: 1 × 3
  .metric  .estimator .estimate
  <chr>    <chr>          <dbl>
1 accuracy binary         0.767

ROC AUC assessment

pred_test <- predict(tree_fit, dat_test2, type="prob") |> bind_cols(dat_test2 |> select(pa))
pred_test

# A tibble: 120 × 3
   .pred_0 .pred_1 pa   
     <dbl>   <dbl> <fct>
 1  0.167    0.833 1    
 2  1        0     1    
 3  0.167    0.833 1    
 4  0.887    0.113 1    
 5  0.0851   0.915 1    
 6  0.167    0.833 1    
 7  0.887    0.113 1    
 8  0.0851   0.915 1    
 9  0.0851   0.915 1    
10  0        1     1    
# ℹ 110 more rows
…
