Lab-2
…
Cross Validation

dat_split <- initial_split(df2, prop = 0.75)
dat_train <- training(dat_split)
dat_test <- testing(dat_split)

Model initiation

lin_reg <- linear_reg()

lr_fit <- lin_reg |> fit(area~price+bathrooms+guestroom, df2)

predict(lr_fit, dat_test)

# A tibble: 137 × 1
   .pred
   <dbl>
 1  8.89
 2  8.89
 3  8.97
 4  8.88
 5  8.86
 6  8.86
 7  8.86
 8  8.85
 9  8.92
10  8.82
# ℹ 127 more rows
…
